…
Summary of posterior support for positive invasion growth:
# A tibble: 40 × 6
   Site  Cov   species        fac_label           fac_sc p_positive
   <fct> <fct> <fct>          <fct>                <dbl>      <dbl>
 1 BEN   SH    T. cyanopetala Without facilitator  0          0.312
 2 BEN   SH    T. cyanopetala With facilitator     0.361      0.334
 3 BEN   SH    T. ornata      Without facilitator  0          0.715
 4 BEN   SH    T. ornata      With facilitator     0.361      0.698
 5 GH    SH    T. cyanopetala Without facilitator  0          0.260
 6 GH    SH    T. cyanopetala With facilitator     0.131      0.273
 7 GH    SH    T. ornata      Without facilitator  0          0.76 
 8 GH    SH    T. ornata      With facilitator     0.131      0.750
 9 NAM   SH    T. cyanopetala Without facilitator  0          0.441
10 NAM   SH    T. cyanopetala With facilitator     0.349      0.483
# ℹ 30 more rows
# ℹ Use `print(n = ...)` to see more rows
