…
Summary of posterior support for positive invasion growth:
# A tibble: 40 × 6
   species        Site  Cov   fac_label           fac_sc p_positive
   <chr>          <fct> <fct> <chr>                <int>      <dbl>
 1 T. cyanopetala BEN   SH    Without facilitator      0     0.003 
 2 T. cyanopetala BEN   SH    With facilitator         5     0.185 
 3 T. cyanopetala BEN   SUN   Without facilitator      0     0.0486
 4 T. cyanopetala BEN   SUN   With facilitator        10     0.297 
 5 T. cyanopetala GH    SH    Without facilitator      0     0.259 
 6 T. cyanopetala GH    SH    With facilitator         3     0.472 
 7 T. cyanopetala GH    SUN   Without facilitator      0     0.410 
 8 T. cyanopetala GH    SUN   With facilitator         9     0.646 
 9 T. cyanopetala NAM   SH    Without facilitator      0     0.322 
10 T. cyanopetala NAM   SH    With facilitator         3     0.548 
# ℹ 30 more rows
# ℹ Use `print(n = ...)` to see more rows
