…
Summary of posterior support for positive invasion growth:
# A tibble: 40 × 6
   species        Site  Cov   fac_label           fac_sc p_positive
   <chr>          <fct> <fct> <chr>                <int>      <dbl>
 1 T. cyanopetala BEN   SH    Without facilitator      0      0.312
 2 T. cyanopetala BEN   SH    With facilitator         5      0.554
 3 T. cyanopetala BEN   SUN   Without facilitator      0      0.484
 4 T. cyanopetala BEN   SUN   With facilitator        10      0.720
 5 T. cyanopetala GH    SH    Without facilitator      0      0.260
 6 T. cyanopetala GH    SH    With facilitator         3      0.523
 7 T. cyanopetala GH    SUN   Without facilitator      0      0.449
 8 T. cyanopetala GH    SUN   With facilitator         9      0.734
 9 T. cyanopetala NAM   SH    Without facilitator      0      0.441
10 T. cyanopetala NAM   SH    With facilitator         3      0.708
# ℹ 30 more rows
# ℹ Use `print(n = ...)` to see more rows
